<svg width="60" height="60" viewBox="0 0 60 60" fill="none" xmlns="http://www.w3.org/2000/svg">
<path fill-rule="evenodd" clip-rule="evenodd" d="M30 6C30.8284 6 31.5 6.67157 31.5 7.5V17.5C31.5 17.7652 31.6054 18.0196 31.7929 18.2071C31.9804 18.3946 32.2348 18.5 32.5 18.5H42.5C43.3284 18.5 44 19.1716 44 20C44 20.8284 43.3284 21.5 42.5 21.5H32.5C31.4391 21.5 30.4217 21.0786 29.6716 20.3284C28.9214 19.5783 28.5 18.5609 28.5 17.5V7.5C28.5 6.67157 29.1716 6 30 6Z" fill="#0A75BA"/>
<path fill-rule="evenodd" clip-rule="evenodd" d="M12.5 9C11.5717 9 10.6815 9.36875 10.0251 10.0251C9.36875 10.6815 9 11.5717 9 12.5V47.5C9 48.4283 9.36875 49.3185 10.0251 49.9749C10.6815 50.6313 11.5717 51 12.5 51H28.75C29.5784 51 30.25 51.6716 30.25 52.5C30.25 53.3284 29.5784 54 28.75 54H12.5C10.7761 54 9.12279 53.3152 7.90381 52.0962C6.68482 50.8772 6 49.2239 6 47.5V12.5C6 10.7761 6.68482 9.12279 7.90381 7.90381C9.12279 6.68482 10.7761 6 12.5 6H30C30.3978 6 30.7794 6.15804 31.0607 6.43934L43.5607 18.9393C43.842 19.2206 44 19.6022 44 20V26.5C44 27.3284 43.3284 28 42.5 28C41.6716 28 41 27.3284 41 26.5V20.6213L29.3787 9H12.5Z" fill="#0A75BA"/>
<path d="M43 49.6811L49.798 54L47.994 45.86L54 40.3832L46.091 39.6768L43 32L39.909 39.6768L32 40.3832L38.006 45.86L36.202 54L43 49.6811Z" fill="#FC8181"/>
<path d="M32.8 25.1C31.5874 25.0978 30.6026 26.079 30.6004 27.2917C30.5994 27.8632 30.8213 28.4126 31.2189 28.8232L27.1995 36.8605C27.1115 36.8459 27.0226 36.8368 26.9333 36.8334C26.6493 36.834 26.3681 36.8898 26.1054 36.9977L22.9851 33.4887C23.1672 33.1666 23.2642 32.8034 23.2667 32.4334C23.2667 31.2184 22.2817 30.2334 21.0667 30.2334C19.8517 30.2334 18.8667 31.2184 18.8667 32.4334C18.8688 32.9586 19.0605 33.4653 19.4064 33.8605L15.5931 40.5396C15.4635 40.5147 15.332 40.5014 15.2 40.5C13.985 40.5 13 41.485 13 42.7C13 43.915 13.985 44.9 15.2 44.9C16.415 44.9 17.4 43.915 17.4 42.7C17.3979 42.1748 17.2062 41.6681 16.8603 41.2729L20.6736 34.5937C21.083 34.6746 21.5072 34.6312 21.8917 34.4691L25.012 37.9781C24.8309 38.3004 24.735 38.6636 24.7334 39.0333C24.7297 40.2484 25.7117 41.2363 26.9267 41.24C28.1418 41.2436 29.1297 40.2617 29.1333 39.0466C29.1351 38.4734 28.913 37.9222 28.5144 37.5102L32.5338 29.4729C32.6219 29.4875 32.7108 29.4966 32.8 29.5C34.015 29.5 35 28.515 35 27.3C35 26.085 34.015 25.1 32.8 25.1ZM15.2 43.4333C14.795 43.4333 14.4667 43.105 14.4667 42.7C14.4667 42.295 14.795 41.9667 15.2 41.9667C15.605 41.9667 15.9333 42.295 15.9333 42.7C15.9333 43.105 15.605 43.4333 15.2 43.4333ZM21.0667 33.1667C20.6616 33.1667 20.3333 32.8383 20.3333 32.4333C20.3333 32.0283 20.6616 31.7 21.0667 31.7C21.4717 31.7 21.8 32.0283 21.8 32.4333C21.8 32.8383 21.4717 33.1667 21.0667 33.1667ZM26.9333 39.7667C26.5283 39.7667 26.2 39.4383 26.2 39.0333C26.2 38.6283 26.5283 38.3 26.9333 38.3C27.3384 38.3 27.6667 38.6283 27.6667 39.0333C27.6667 39.4383 27.3383 39.7667 26.9333 39.7667ZM32.8 28.0333C32.395 28.0333 32.0667 27.705 32.0667 27.3C32.0667 26.895 32.395 26.5667 32.8 26.5667C33.205 26.5667 33.5333 26.895 33.5333 27.3C33.5333 27.705 33.205 28.0333 32.8 28.0333Z" fill="#FC8181"/>
</svg>
